 EPOCH1D v4.17.16   v4.17.16-0-g3088d845-clean 1656895843.284          
 
 Loaded 400000 particles of species "electron"
 Loaded 400000 particles of species "proton"
Wrote full    dump number    0 at time  0.396107363048E-16 and iteration      0
Wrote full    dump number    1 at time  0.316885890438E-13 and iteration    400
Wrote full    dump number    2 at time  0.633771780877E-13 and iteration    800
Wrote full    dump number    3 at time  0.950657671315E-13 and iteration   1200
Wrote full    dump number    4 at time  0.126754356175E-12 and iteration   1600
Wrote full    dump number    5 at time  0.158442945219E-12 and iteration   2000
Wrote full    dump number    6 at time  0.190131534263E-12 and iteration   2400
Wrote full    dump number    7 at time  0.221820123307E-12 and iteration   2800
Wrote full    dump number    8 at time  0.253508712351E-12 and iteration   3200
Wrote full    dump number    9 at time  0.285197301394E-12 and iteration   3600
Wrote full    dump number   10 at time  0.316885890438E-12 and iteration   4000
Wrote full    dump number   11 at time  0.348574479482E-12 and iteration   4400
Wrote full    dump number   12 at time  0.380263068526E-12 and iteration   4800
Wrote full    dump number   13 at time  0.411951657570E-12 and iteration   5200
Wrote full    dump number   14 at time  0.443640246613E-12 and iteration   5600
Wrote full    dump number   15 at time  0.475328835657E-12 and iteration   6000
Wrote full    dump number   16 at time  0.507017424701E-12 and iteration   6400
Wrote full    dump number   17 at time  0.538706013745E-12 and iteration   6800
Wrote full    dump number   18 at time  0.570394602789E-12 and iteration   7200
Wrote full    dump number   19 at time  0.602083191833E-12 and iteration   7600
Wrote full    dump number   20 at time  0.633771780876E-12 and iteration   8000
Wrote full    dump number   21 at time  0.665460369920E-12 and iteration   8400
Wrote full    dump number   22 at time  0.667163631581E-12 and iteration   8421
